{
	"id": "961dbff1-9c38-4ca1-a363-90f8467aa148",
	"name": "gigsnation-hris-Live",
	"description": "",
	"order": [
		"c56489b0-8dd8-41b4-88bb-117b4dc5facb",
		"b809ae18-412b-4179-a6ca-75d23917b305",
		"cc0fc573-ead1-430a-9813-7fde992975c3"
	],
	"folders": [
		{
			"owner": "2807907",
			"lastUpdatedBy": "2807907",
			"lastRevision": 5929964668,
			"folder": null,
			"id": "19ebb5ae-0796-4c62-9cd7-22d1521866c4",
			"name": "AllowanceType",
			"description": "",
			"variables": null,
			"auth": null,
			"events": null,
			"order": [
				"b1f11e27-9360-40d8-9612-97fbf2c09192",
				"e556af86-72d7-432e-bacc-2d82e866a11f",
				"633c34b1-f1c2-4f93-bfd8-675104f80053"
			],
			"folders_order": []
		},
		{
			"owner": "2807907",
			"lastUpdatedBy": "2807907",
			"lastRevision": 5929964659,
			"folder": null,
			"id": "00e8f7b8-3941-4ca2-b8da-0ce40635db03",
			"name": "Company",
			"description": "",
			"variables": null,
			"auth": null,
			"events": null,
			"order": [
				"61c88899-ba4e-4984-8086-a0911dddac8f",
				"3142f312-a9eb-4186-be87-fbdb0f432579"
			],
			"folders_order": []
		},
		{
			"owner": "2807907",
			"lastUpdatedBy": "2807907",
			"lastRevision": 5929964666,
			"folder": null,
			"id": "3f871b0e-148d-40ac-b088-908a002a2dc7",
			"name": "DeductionType",
			"description": "",
			"variables": null,
			"auth": null,
			"events": null,
			"order": [
				"b4805bc6-b104-42d9-b634-0b08b690c5a2",
				"771c4953-b028-4251-b913-48e219cc2268",
				"fbdd2e21-2f24-4009-8cf2-92461b8fa9ef"
			],
			"folders_order": []
		},
		{
			"owner": "2807907",
			"lastUpdatedBy": "2807907",
			"lastRevision": 5929964660,
			"folder": null,
			"id": "0af73041-16b2-49f6-9508-c6b36636d668",
			"name": "Department",
			"description": "",
			"variables": null,
			"auth": null,
			"events": null,
			"order": [
				"90a9eeef-d59c-4d04-ba55-f12f0bf5eeb1",
				"269b0f62-ca4b-4115-829d-30c151d1b15b",
				"7ebccabe-a8df-484a-a9d5-e3536344a39d"
			],
			"folders_order": []
		},
		{
			"owner": "2807907",
			"lastUpdatedBy": "2807907",
			"lastRevision": 5946931912,
			"folder": null,
			"id": "0534abe0-5a07-f292-0996-1d69112d062f",
			"name": "Employee",
			"description": "",
			"variables": null,
			"auth": null,
			"events": null,
			"order": [
				"62f4813b-a244-c5fd-8a88-2a24d5127f10",
				"c9b6dd5f-3a5f-55ce-b520-138f9133c970",
				"a40b2ff8-ac79-d881-e9b2-7e9497f35f45",
				"a54c54b9-4e59-99aa-5512-ea6741a65581"
			],
			"folders_order": []
		},
		{
			"owner": "2807907",
			"lastUpdatedBy": "2807907",
			"lastRevision": 5929964665,
			"folder": null,
			"id": "7ccd2043-f849-4dd0-b9da-3182254990b7",
			"name": "EmploymentType",
			"description": "",
			"variables": null,
			"auth": null,
			"events": null,
			"order": [
				"b4ade01c-7641-4c3c-9ba2-5e4d8a446503",
				"9844f05d-9e9c-4e15-9dfc-096ced4ecaad",
				"883d37b9-5b9f-4c55-ab4a-9db7a87315db"
			],
			"folders_order": []
		},
		{
			"owner": "2807907",
			"lastUpdatedBy": "2807907",
			"lastRevision": 5929964663,
			"folder": null,
			"id": "6178b70e-5ca9-467e-9e32-637dde2832e3",
			"name": "Holiday",
			"description": "",
			"variables": null,
			"auth": null,
			"events": null,
			"order": [
				"e7885674-c5bc-4945-bac8-17a0835bcf8d",
				"e29f154c-5324-47f4-b128-f1ea95cdf276",
				"3982391f-98a4-415f-88d8-9dfa5af15947"
			],
			"folders_order": []
		},
		{
			"owner": "2807907",
			"lastUpdatedBy": "2807907",
			"lastRevision": 5929964662,
			"folder": null,
			"id": "98e6e671-ef34-4018-9f5d-5ca0ab4e4e48",
			"name": "Leave",
			"description": "",
			"variables": null,
			"auth": null,
			"events": null,
			"order": [
				"a587b2f9-8405-4a1d-bec2-87ec7e59d9ec",
				"d2d21fd9-b76c-46f9-bdec-08d0d9e10e53",
				"067807f8-e114-4176-b5de-300d7147e974"
			],
			"folders_order": []
		},
		{
			"owner": "2807907",
			"lastUpdatedBy": "2807907",
			"lastRevision": 5929964667,
			"folder": null,
			"id": "a4d7a446-f539-4908-960a-aad9e85ffe2d",
			"name": "LeaveType",
			"description": "",
			"variables": null,
			"auth": null,
			"events": null,
			"order": [
				"1ea8add7-bead-4c9e-a0fe-cb88e0e517a3",
				"ccfa47fa-e2ea-4247-9dde-e877d02a4d35",
				"41ff72d9-22c9-4d8f-bffe-59eae5d13966"
			],
			"folders_order": []
		},
		{
			"owner": "2807907",
			"lastUpdatedBy": "2807907",
			"lastRevision": 5929964669,
			"folder": null,
			"id": "a85fbde2-b9a7-4948-bdc8-fe4544329463",
			"name": "LoanType",
			"description": "",
			"variables": null,
			"auth": null,
			"events": null,
			"order": [
				"662c9d42-ec69-4158-87c9-43b79ef49808",
				"880a994a-b432-4dd6-904e-c511311affd0",
				"ed15176b-da0c-4a08-b03c-7a724281d904"
			],
			"folders_order": []
		},
		{
			"owner": "2807907",
			"lastUpdatedBy": "2807907",
			"lastRevision": 5929964664,
			"folder": null,
			"id": "f49f8504-87f0-494e-a815-903c21fcb9d0",
			"name": "Position",
			"description": "",
			"variables": null,
			"auth": null,
			"events": null,
			"order": [
				"9b43dc4f-7d82-4c70-9287-554a4af58298",
				"26a9800d-bcbd-4210-8928-92d66352ab50",
				"c5b61c1c-7149-447c-89e9-c09634ee533a"
			],
			"folders_order": []
		},
		{
			"owner": "2807907",
			"lastUpdatedBy": "2807907",
			"lastRevision": 5929964670,
			"folder": null,
			"id": "0f14b656-89c7-40eb-b9e7-ba92efda8370",
			"name": "SalarySetting",
			"description": "",
			"variables": null,
			"auth": null,
			"events": null,
			"order": [
				"1e978914-fc34-4f49-bfd5-1eebfa0c93bb",
				"0a846076-566e-408e-9623-f0f206d48e67",
				"2c50ece1-7208-4c79-98c7-213e31ef365d"
			],
			"folders_order": []
		},
		{
			"owner": "2807907",
			"lastUpdatedBy": "2807907",
			"lastRevision": 5929964671,
			"folder": null,
			"id": "ce41cf37-57cc-4289-b6c6-e184b219614a",
			"name": "User",
			"description": "",
			"variables": null,
			"auth": null,
			"events": null,
			"order": [
				"9181a697-203e-4839-a4d0-0041f8893d28"
			],
			"folders_order": []
		}
	],
	"folders_order": [
		"00e8f7b8-3941-4ca2-b8da-0ce40635db03",
		"0af73041-16b2-49f6-9508-c6b36636d668",
		"98e6e671-ef34-4018-9f5d-5ca0ab4e4e48",
		"6178b70e-5ca9-467e-9e32-637dde2832e3",
		"0534abe0-5a07-f292-0996-1d69112d062f",
		"f49f8504-87f0-494e-a815-903c21fcb9d0",
		"7ccd2043-f849-4dd0-b9da-3182254990b7",
		"3f871b0e-148d-40ac-b088-908a002a2dc7",
		"a4d7a446-f539-4908-960a-aad9e85ffe2d",
		"19ebb5ae-0796-4c62-9cd7-22d1521866c4",
		"a85fbde2-b9a7-4948-bdc8-fe4544329463",
		"0f14b656-89c7-40eb-b9e7-ba92efda8370",
		"ce41cf37-57cc-4289-b6c6-e184b219614a"
	],
	"timestamp": 0,
	"owner": "2807907",
	"public": false,
	"requests": [
		{
			"folder": "98e6e671-ef34-4018-9f5d-5ca0ab4e4e48",
			"id": "067807f8-e114-4176-b5de-300d7147e974",
			"name": "Update Leave",
			"dataMode": "urlencoded",
			"data": [
				{
					"description": "",
					"enabled": true,
					"key": "page",
					"type": "text",
					"value": "leaveUpdate"
				},
				{
					"key": "leaveID",
					"value": "1",
					"description": "",
					"type": "text",
					"enabled": true
				},
				{
					"description": "",
					"enabled": true,
					"key": "employeeID",
					"type": "text",
					"value": "001"
				},
				{
					"description": "",
					"enabled": true,
					"key": "leaveTypeID",
					"type": "text",
					"value": "2"
				},
				{
					"description": "",
					"enabled": true,
					"key": "employeeLeaveApplyDate",
					"type": "text",
					"value": "2018-12-20"
				},
				{
					"description": "",
					"enabled": true,
					"key": "employeeLeaveStartDate",
					"type": "text",
					"value": "2018-12-25"
				},
				{
					"description": "",
					"enabled": true,
					"key": "employeeLeaveEndDate",
					"type": "text",
					"value": "2018-12-30"
				},
				{
					"description": "",
					"enabled": true,
					"key": "employeeLeaveRemarks",
					"type": "text",
					"value": "Family Vacationsssss"
				},
				{
					"key": "employeeLeaveStatus",
					"value": "2",
					"description": "",
					"type": "text",
					"enabled": true
				}
			],
			"auth": null,
			"events": null,
			"rawModeData": null,
			"descriptionFormat": null,
			"description": null,
			"variables": null,
			"headers": "Content-Type: application/x-www-form-urlencoded\n",
			"method": "POST",
			"pathVariables": {},
			"url": "{{live}}/module/leave/update_leave.php",
			"preRequestScript": null,
			"tests": null,
			"currentHelper": null,
			"helperAttributes": null,
			"queryParams": [
				{
					"key": "page",
					"value": "leaveUpdate",
					"description": "",
					"type": "text",
					"enabled": false
				},
				{
					"key": "employeeLeaveStatus",
					"value": "",
					"description": "",
					"type": "text",
					"enabled": false
				}
			],
			"headerData": [
				{
					"description": "",
					"key": "Content-Type",
					"name": "Content-Type",
					"type": "text",
					"value": "application/x-www-form-urlencoded"
				}
			],
			"pathVariableData": [],
			"responses": [],
			"collectionId": "961dbff1-9c38-4ca1-a363-90f8467aa148"
		},
		{
			"folder": "0f14b656-89c7-40eb-b9e7-ba92efda8370",
			"id": "0a846076-566e-408e-9623-f0f206d48e67",
			"name": "Update Salary Setting",
			"dataMode": "urlencoded",
			"data": [
				{
					"key": "page",
					"value": "updateSalarySetting",
					"type": "text",
					"enabled": true,
					"description": ""
				},
				{
					"key": "salarySettingName",
					"value": "Loan 2",
					"type": "text",
					"enabled": true,
					"description": ""
				},
				{
					"key": "salarySettingValueRate",
					"value": " 20",
					"type": "text",
					"enabled": true,
					"description": ""
				},
				{
					"key": "salarySettingID",
					"value": "1",
					"description": "",
					"type": "text",
					"enabled": true
				}
			],
			"auth": null,
			"events": null,
			"rawModeData": null,
			"descriptionFormat": null,
			"description": null,
			"variables": null,
			"headers": "Content-Type: application/x-www-form-urlencoded\n",
			"method": "POST",
			"pathVariables": {},
			"url": "{{live}}/module/salary-setting/update_salary_setting.php",
			"preRequestScript": null,
			"tests": null,
			"currentHelper": null,
			"helperAttributes": null,
			"queryParams": [],
			"headerData": [
				{
					"key": "Content-Type",
					"value": "application/x-www-form-urlencoded"
				}
			],
			"pathVariableData": [],
			"responses": [],
			"collectionId": "961dbff1-9c38-4ca1-a363-90f8467aa148"
		},
		{
			"folder": "0f14b656-89c7-40eb-b9e7-ba92efda8370",
			"id": "1e978914-fc34-4f49-bfd5-1eebfa0c93bb",
			"name": "Add Salary Setting",
			"dataMode": "urlencoded",
			"data": [
				{
					"key": "page",
					"value": "addSalarySetting",
					"type": "text",
					"enabled": true,
					"description": ""
				},
				{
					"key": "salarySettingName",
					"value": "Loan 1",
					"type": "text",
					"enabled": true,
					"description": ""
				},
				{
					"key": "salarySettingValueRate",
					"value": " 30",
					"type": "text",
					"enabled": true,
					"description": ""
				},
				{
					"key": "loanTypeID",
					"value": "",
					"type": "text",
					"enabled": false,
					"description": ""
				}
			],
			"auth": null,
			"events": null,
			"rawModeData": null,
			"descriptionFormat": null,
			"description": null,
			"variables": null,
			"headers": "Content-Type: application/x-www-form-urlencoded\n",
			"method": "POST",
			"pathVariables": {},
			"url": "{{live}}/module/salary-setting/add_salary_setting.php",
			"preRequestScript": null,
			"tests": null,
			"currentHelper": null,
			"helperAttributes": null,
			"queryParams": [],
			"headerData": [
				{
					"key": "Content-Type",
					"value": "application/x-www-form-urlencoded"
				}
			],
			"pathVariableData": [],
			"responses": [],
			"collectionId": "961dbff1-9c38-4ca1-a363-90f8467aa148"
		},
		{
			"folder": "a4d7a446-f539-4908-960a-aad9e85ffe2d",
			"id": "1ea8add7-bead-4c9e-a0fe-cb88e0e517a3",
			"name": "Add Leave Type",
			"dataMode": "urlencoded",
			"data": [
				{
					"key": "page",
					"value": "addLeaveType",
					"type": "text",
					"enabled": true,
					"description": ""
				},
				{
					"key": "leaveTypeName",
					"value": "Leave 2",
					"type": "text",
					"enabled": true,
					"description": ""
				},
				{
					"key": "leaveTypeStatus",
					"value": "Y",
					"type": "text",
					"enabled": true,
					"description": ""
				}
			],
			"auth": null,
			"events": null,
			"rawModeData": null,
			"descriptionFormat": null,
			"description": null,
			"variables": null,
			"headers": "Content-Type: application/x-www-form-urlencoded\n",
			"method": "POST",
			"pathVariables": {},
			"url": "{{live}}/module/leave-type/add_leave_type.php",
			"preRequestScript": null,
			"tests": null,
			"currentHelper": null,
			"helperAttributes": null,
			"queryParams": [],
			"headerData": [
				{
					"key": "Content-Type",
					"value": "application/x-www-form-urlencoded"
				}
			],
			"pathVariableData": [],
			"responses": [],
			"collectionId": "961dbff1-9c38-4ca1-a363-90f8467aa148"
		},
		{
			"folder": "0af73041-16b2-49f6-9508-c6b36636d668",
			"id": "269b0f62-ca4b-4115-829d-30c151d1b15b",
			"name": "List Department ",
			"dataMode": "urlencoded",
			"data": [
				{
					"key": "page",
					"value": "listDepartment",
					"type": "text",
					"description": "listDepartment, searchHoliday"
				},
				{
					"key": "departmentTypeName",
					"value": "",
					"description": "",
					"type": "text",
					"enabled": true
				},
				{
					"key": "departmentTypeStatus",
					"value": "",
					"description": "",
					"type": "text",
					"enabled": true
				}
			],
			"auth": null,
			"events": null,
			"rawModeData": null,
			"descriptionFormat": null,
			"description": null,
			"variables": null,
			"headers": "Content-Type: application/x-www-form-urlencoded\n",
			"method": "POST",
			"pathVariables": {},
			"url": "{{live}}/module/department/department.php",
			"preRequestScript": null,
			"tests": null,
			"currentHelper": null,
			"helperAttributes": null,
			"queryParams": [],
			"headerData": [
				{
					"key": "Content-Type",
					"value": "application/x-www-form-urlencoded"
				}
			],
			"pathVariableData": [],
			"responses": [],
			"collectionId": "961dbff1-9c38-4ca1-a363-90f8467aa148"
		},
		{
			"folder": "f49f8504-87f0-494e-a815-903c21fcb9d0",
			"id": "26a9800d-bcbd-4210-8928-92d66352ab50",
			"name": "Update Position",
			"dataMode": "urlencoded",
			"data": [
				{
					"key": "page",
					"type": "text",
					"value": "updatePosition"
				},
				{
					"key": "positionTypeID",
					"type": "text",
					"value": "1"
				},
				{
					"key": "departmentTypeID",
					"value": "1",
					"description": "",
					"type": "text",
					"enabled": true
				},
				{
					"key": "positionTypeName",
					"type": "text",
					"value": "Software Developer 2"
				},
				{
					"key": "positionTypeSalary",
					"type": "text",
					"value": "10000"
				},
				{
					"key": "positionTypeStatus",
					"type": "text",
					"value": "1"
				}
			],
			"auth": null,
			"events": null,
			"rawModeData": null,
			"descriptionFormat": null,
			"description": null,
			"variables": null,
			"headers": "Content-Type: application/x-www-form-urlencoded\n",
			"method": "POST",
			"pathVariables": {},
			"url": "{{live}}/module/position/update_position.php",
			"preRequestScript": null,
			"tests": null,
			"currentHelper": null,
			"helperAttributes": null,
			"queryParams": [],
			"headerData": [
				{
					"key": "Content-Type",
					"value": "application/x-www-form-urlencoded"
				}
			],
			"pathVariableData": [],
			"responses": [],
			"collectionId": "961dbff1-9c38-4ca1-a363-90f8467aa148"
		},
		{
			"folder": "0f14b656-89c7-40eb-b9e7-ba92efda8370",
			"id": "2c50ece1-7208-4c79-98c7-213e31ef365d",
			"name": "List Salary Setting",
			"dataMode": "urlencoded",
			"data": [
				{
					"key": "page",
					"value": "listSalarySetting",
					"type": "text",
					"enabled": true,
					"description": "listSalarySetting,selectSalarySetting"
				},
				{
					"key": "salarySettingName",
					"value": "Loan 2",
					"type": "text",
					"enabled": true,
					"description": ""
				},
				{
					"key": "salarySettingValueRate",
					"value": " 30",
					"type": "text",
					"enabled": true,
					"description": ""
				},
				{
					"key": "loanTypeID",
					"value": "",
					"type": "text",
					"enabled": false,
					"description": ""
				}
			],
			"auth": null,
			"events": null,
			"rawModeData": null,
			"descriptionFormat": null,
			"description": null,
			"variables": null,
			"headers": "Content-Type: application/x-www-form-urlencoded\n",
			"method": "POST",
			"pathVariables": {},
			"url": "{{live}}/module/salary-setting/salary_setting.php",
			"preRequestScript": null,
			"tests": null,
			"currentHelper": null,
			"helperAttributes": null,
			"queryParams": [],
			"headerData": [
				{
					"key": "Content-Type",
					"value": "application/x-www-form-urlencoded"
				}
			],
			"pathVariableData": [],
			"responses": [],
			"collectionId": "961dbff1-9c38-4ca1-a363-90f8467aa148"
		},
		{
			"folder": "00e8f7b8-3941-4ca2-b8da-0ce40635db03",
			"id": "3142f312-a9eb-4186-be87-fbdb0f432579",
			"name": "Update Company",
			"dataMode": "urlencoded",
			"data": [
				{
					"key": "page",
					"value": "updateCompany",
					"type": "text",
					"enabled": true,
					"description": ""
				},
				{
					"key": "companyName",
					"value": "Testin",
					"type": "text",
					"enabled": true,
					"description": ""
				},
				{
					"key": "companyContactPerson",
					"value": "Ayrah",
					"type": "text",
					"enabled": true,
					"description": ""
				},
				{
					"key": "companyAddress",
					"value": "IBM Plaza",
					"type": "text",
					"enabled": true,
					"description": ""
				},
				{
					"key": "companyCountry",
					"value": "Philippines",
					"type": "text",
					"enabled": true,
					"description": ""
				},
				{
					"key": "companyCity",
					"value": "Pateros ",
					"type": "text",
					"enabled": true,
					"description": ""
				},
				{
					"key": "companyState",
					"value": "Metro Manila",
					"type": "text",
					"enabled": true,
					"description": ""
				},
				{
					"key": "companyPostalCode",
					"value": "1620",
					"type": "text",
					"enabled": true,
					"description": ""
				},
				{
					"key": "companyEmail",
					"value": "comapany@gmail.com",
					"type": "text",
					"enabled": true,
					"description": ""
				},
				{
					"key": "companyPhoneNumber",
					"value": "12321",
					"description": "",
					"type": "text",
					"enabled": true
				},
				{
					"key": "companyMobileNumber",
					"value": "09771003619",
					"type": "text",
					"enabled": true,
					"description": ""
				},
				{
					"key": "companyFaxNumber",
					"value": "11111",
					"description": "",
					"type": "text",
					"enabled": true
				},
				{
					"key": "companyWebsite",
					"value": "www.wala.com",
					"type": "text",
					"enabled": true,
					"description": ""
				}
			],
			"auth": null,
			"events": null,
			"rawModeData": null,
			"descriptionFormat": null,
			"description": null,
			"variables": null,
			"headers": "Content-Type: application/x-www-form-urlencoded\n",
			"method": "POST",
			"pathVariables": {},
			"url": "{{live}}/module/company/update_company.php",
			"preRequestScript": null,
			"tests": null,
			"currentHelper": null,
			"helperAttributes": null,
			"queryParams": [],
			"headerData": [
				{
					"key": "Content-Type",
					"name": "Content-Type",
					"value": "application/x-www-form-urlencoded",
					"description": "",
					"type": "text"
				}
			],
			"pathVariableData": [],
			"responses": [],
			"collectionId": "961dbff1-9c38-4ca1-a363-90f8467aa148"
		},
		{
			"folder": "6178b70e-5ca9-467e-9e32-637dde2832e3",
			"id": "3982391f-98a4-415f-88d8-9dfa5af15947",
			"name": "Update Holiday",
			"dataMode": "urlencoded",
			"data": [
				{
					"key": "page",
					"type": "text",
					"value": "holidayUpdate"
				},
				{
					"key": "holidayTypeID",
					"value": "1",
					"description": "",
					"type": "text",
					"enabled": true
				},
				{
					"key": "holidayName",
					"type": "text",
					"value": "christmas"
				},
				{
					"key": "holidayDate",
					"type": "text",
					"value": "2018-12-25"
				},
				{
					"key": "holidayType",
					"type": "text",
					"value": "1"
				}
			],
			"auth": null,
			"events": null,
			"rawModeData": null,
			"descriptionFormat": null,
			"description": null,
			"variables": null,
			"headers": "Content-Type: application/x-www-form-urlencoded\n",
			"method": "POST",
			"pathVariables": {},
			"url": "{{live}}/module/holiday/update_holiday.php",
			"preRequestScript": null,
			"tests": null,
			"currentHelper": null,
			"helperAttributes": null,
			"queryParams": [],
			"headerData": [
				{
					"key": "Content-Type",
					"value": "application/x-www-form-urlencoded"
				}
			],
			"pathVariableData": [],
			"responses": [],
			"collectionId": "961dbff1-9c38-4ca1-a363-90f8467aa148"
		},
		{
			"folder": "a4d7a446-f539-4908-960a-aad9e85ffe2d",
			"id": "41ff72d9-22c9-4d8f-bffe-59eae5d13966",
			"name": "List Leave Type",
			"dataMode": "urlencoded",
			"data": [
				{
					"key": "page",
					"value": "listLeaveType",
					"type": "text",
					"enabled": true,
					"description": "listLeaveType,selectDeductionType"
				},
				{
					"key": "leaveTypeName",
					"value": "Leave 2",
					"type": "text",
					"enabled": true,
					"description": ""
				},
				{
					"key": "leaveTypeStatus",
					"value": "N",
					"type": "text",
					"enabled": true,
					"description": ""
				},
				{
					"key": "leaveTypeID",
					"value": "",
					"type": "text",
					"enabled": true,
					"description": ""
				}
			],
			"auth": null,
			"events": null,
			"rawModeData": null,
			"descriptionFormat": null,
			"description": null,
			"variables": null,
			"headers": "Content-Type: application/x-www-form-urlencoded\n",
			"method": "POST",
			"pathVariables": {},
			"url": "{{live}}/module/leave-type/leave_type.php",
			"preRequestScript": null,
			"tests": null,
			"currentHelper": null,
			"helperAttributes": null,
			"queryParams": [],
			"headerData": [
				{
					"key": "Content-Type",
					"value": "application/x-www-form-urlencoded"
				}
			],
			"pathVariableData": [],
			"responses": [],
			"collectionId": "961dbff1-9c38-4ca1-a363-90f8467aa148"
		},
		{
			"folder": "00e8f7b8-3941-4ca2-b8da-0ce40635db03",
			"id": "61c88899-ba4e-4984-8086-a0911dddac8f",
			"name": "Company",
			"dataMode": "urlencoded",
			"data": [
				{
					"key": "page",
					"value": "listCompany",
					"type": "text",
					"enabled": true,
					"description": ""
				},
				{
					"key": "companyName",
					"value": "Testin",
					"type": "text",
					"enabled": true,
					"description": ""
				},
				{
					"key": "companyContactPerson",
					"value": "Ayrah",
					"type": "text",
					"enabled": true,
					"description": ""
				},
				{
					"key": "companyAddress",
					"value": "IBM Plaza",
					"type": "text",
					"enabled": true,
					"description": ""
				},
				{
					"key": "companyCountry",
					"value": "Philippines",
					"type": "text",
					"enabled": true,
					"description": ""
				},
				{
					"key": "companyCity",
					"value": "Pateros ",
					"type": "text",
					"enabled": true,
					"description": ""
				},
				{
					"key": "companyState",
					"value": "Metro Manila",
					"type": "text",
					"enabled": true,
					"description": ""
				},
				{
					"key": "companyPostalCode",
					"value": "1620",
					"type": "text",
					"enabled": true,
					"description": ""
				},
				{
					"key": "companyEmail",
					"value": "comapany@gmail.com",
					"type": "text",
					"enabled": true,
					"description": ""
				},
				{
					"key": "companyMobileNumber",
					"value": "09771003619",
					"type": "text",
					"enabled": true,
					"description": ""
				},
				{
					"key": "companyWebsite",
					"value": "www.wala.com",
					"type": "text",
					"enabled": true,
					"description": ""
				}
			],
			"auth": null,
			"events": null,
			"rawModeData": null,
			"descriptionFormat": null,
			"description": null,
			"variables": null,
			"headers": "Content-Type: application/x-www-form-urlencoded\n",
			"method": "POST",
			"pathVariables": {},
			"url": "{{live}}/module/company/company.php",
			"preRequestScript": null,
			"tests": null,
			"currentHelper": null,
			"helperAttributes": null,
			"queryParams": [],
			"headerData": [
				{
					"key": "Content-Type",
					"name": "Content-Type",
					"value": "application/x-www-form-urlencoded",
					"description": "",
					"type": "text"
				}
			],
			"pathVariableData": [],
			"responses": [],
			"collectionId": "961dbff1-9c38-4ca1-a363-90f8467aa148"
		},
		{
			"folder": "0534abe0-5a07-f292-0996-1d69112d062f",
			"id": "62f4813b-a244-c5fd-8a88-2a24d5127f10",
			"name": "Add Employee",
			"dataMode": "urlencoded",
			"data": [
				{
					"key": "page",
					"value": "addEmployee",
					"type": "text"
				},
				{
					"key": "employeeID",
					"value": "010",
					"type": "text",
					"enabled": true
				},
				{
					"key": "firstName",
					"value": "eireenaaaaaa",
					"type": "text"
				},
				{
					"key": "lastName",
					"value": "Estudilloo",
					"type": "text"
				},
				{
					"key": "middleName",
					"value": "Aguirre",
					"type": "text"
				},
				{
					"key": "extName",
					"value": "",
					"type": "text"
				},
				{
					"key": "birthday",
					"value": "1995-04-21",
					"type": "text"
				},
				{
					"key": "gender",
					"value": "2",
					"type": "text"
				},
				{
					"key": "civilStatus",
					"value": "2",
					"type": "text"
				},
				{
					"key": "nationality",
					"value": "Filipino",
					"type": "text"
				},
				{
					"key": "email",
					"value": "ayrah0421.pao@gmail.com",
					"type": "text"
				},
				{
					"key": "contactNumber",
					"value": "09771003619",
					"type": "text"
				},
				{
					"key": "address1",
					"value": "096 Stuazon St.",
					"type": "text"
				},
				{
					"key": "city1",
					"value": "Pateros",
					"type": "text"
				},
				{
					"key": "provinceState1",
					"value": "Metro, Manila",
					"type": "text"
				},
				{
					"key": "country1",
					"value": "Philippines",
					"type": "text"
				},
				{
					"key": "zipCode1",
					"value": "1620",
					"type": "text"
				},
				{
					"key": "addressType1",
					"value": "1",
					"type": "text"
				},
				{
					"key": "residentailAddress",
					"value": "true",
					"type": "text"
				},
				{
					"key": "address2",
					"value": "0977 M.Almeda St. Brgy. Poblacion",
					"type": "text"
				},
				{
					"key": "city2",
					"value": "Pateros",
					"type": "text"
				},
				{
					"key": "provinceState2",
					"value": "Metro, Manila",
					"type": "text"
				},
				{
					"key": "country2",
					"value": "Philippines",
					"type": "text"
				},
				{
					"key": "zipCode2",
					"value": "1620"
				},
				{
					"key": "addressType2",
					"value": "2"
				},
				{
					"key": "contactName",
					"value": "Davecar Grave",
					"type": "text"
				},
				{
					"key": "emergencyContactNum",
					"value": "0977788822",
					"type": "text"
				},
				{
					"key": "relationship",
					"value": "Father",
					"type": "text"
				},
				{
					"key": "remarks",
					"value": "Father of my future daughter and son",
					"type": "text"
				},
				{
					"key": "employmentBasicSalary",
					"value": "10000",
					"type": "text"
				},
				{
					"key": "positionTypeID",
					"value": "1",
					"type": "text"
				},
				{
					"key": "governmentNumber[]",
					"value": "111111",
					"type": "text"
				},
				{
					"key": "governmentNumber[]",
					"value": "222222",
					"type": "text"
				},
				{
					"key": "governmentNumber[]",
					"value": "333333",
					"type": "text"
				},
				{
					"key": "governmentType[]",
					"value": "1",
					"type": "text"
				},
				{
					"key": "governmentType[]",
					"value": "1",
					"type": "text"
				},
				{
					"key": "governmentType[]",
					"value": "1",
					"type": "text"
				},
				{
					"key": "governmentStatus[]",
					"value": "1",
					"type": "text"
				},
				{
					"key": "governmentStatus[]",
					"value": "1",
					"type": "text"
				},
				{
					"key": "governmentStatus[]",
					"value": "1",
					"type": "text"
				},
				{
					"key": "educationalLevelName[]",
					"value": "Primary",
					"type": "text"
				},
				{
					"key": "educationalStartDate[]",
					"value": "2018-01-01",
					"type": "text"
				},
				{
					"key": "educationalEndDate[]",
					"value": "2018-01-02",
					"type": "text"
				},
				{
					"key": "educationalMajorSpecialization[]",
					"value": "Nothing",
					"type": "text"
				},
				{
					"key": "educationalLevelName[]",
					"value": "Seconday",
					"type": "text"
				},
				{
					"key": "educationalStartDate[]",
					"value": "2018-02-01",
					"type": "text"
				},
				{
					"key": "educationalEndDate[]",
					"value": "2018-02-02",
					"type": "text"
				},
				{
					"key": "educationalMajorSpecialization[]",
					"value": "Nothing",
					"type": "text"
				},
				{
					"key": "departmentTypeID",
					"value": "1",
					"type": "text"
				},
				{
					"key": "positionTypeID",
					"value": "1",
					"type": "text"
				},
				{
					"key": "employmentOriginalDateHIred",
					"value": "2018-02-02",
					"type": "text"
				},
				{
					"key": "employmentStartDate",
					"value": "2018-02-03",
					"type": "text"
				},
				{
					"key": "employmentStatus",
					"value": "1",
					"type": "text"
				},
				{
					"key": "employmentTypeID",
					"value": "1",
					"type": "text"
				},
				{
					"key": "employmentPaymentType",
					"value": "1",
					"type": "text"
				},
				{
					"key": "employmentPaymentGroup",
					"value": "1",
					"type": "text",
					"enabled": true
				},
				{
					"key": "userLevel",
					"value": "1",
					"type": "text",
					"enabled": true
				},
				{
					"key": "jwt",
					"value": "eyJ0eXAiOiJKV1QiLCJhbGciOiJIUzI1NiJ9.eyJpc3MiOiJodHRwOlwvXC9jb2RpbmdzeW50YXguY29tIiwiYXVkIjoiaHR0cDpcL1wvY29kaW5nc3ludGF4LmNvbSIsImlhdCI6MTU0NTA3OTMyNiwibmJmIjoxNTQ1MDc5MzI2LCJleHAiOjE1NDUwODI5MjYsImRhdGEiOnsiaWQiOiIxIiwiZW1wbG95ZWVJRCI6IjAwMSIsInVzZXJOYW1lIjoicGF0cmljaWEub3Rlcm8ifX0.WBoh7Z0cy6lr8gyxuswYmu1RKcAoR2s-lMd_lcVV9LI",
					"type": "text",
					"enabled": true
				}
			],
			"auth": null,
			"events": null,
			"rawModeData": null,
			"descriptionFormat": null,
			"description": "Add Employee",
			"variables": null,
			"headers": "Content-Type: application/x-www-form-urlencoded\n",
			"method": "POST",
			"pathVariables": {},
			"url": "{{live}}/module/employee/add_employee.php",
			"preRequestScript": null,
			"tests": null,
			"currentHelper": null,
			"helperAttributes": null,
			"queryParams": [
				{
					"key": "page",
					"value": "addEmployee",
					"type": "text",
					"enabled": false
				},
				{
					"key": "jwt",
					"value": "eyJ0eXAiOiJKV1QiLCJhbGciOiJIUzI1NiJ9.eyJpc3MiOiJodHRwOlwvXC9jb2RpbmdzeW50YXguY29tIiwiYXVkIjoiaHR0cDpcL1wvY29kaW5nc3ludGF4LmNvbSIsImlhdCI6MTU0NTA1Mjk1MSwibmJmIjoxNTQ1MDUyOTUxLCJleHAiOjE1NDUwNTY1NTEsImRhdGEiOnsiaWQiOiIxIiwiZW1wbG95ZWVJRCI6IjAwMSIsInVzZXJOYW1lIjoicGF0cmljaWEub3Rlcm8ifX0._U9iI_Dunbbsu4efYlqhE_sGhC0BNB1nwdKi6mFhFm4",
					"type": "text",
					"enabled": false
				}
			],
			"headerData": [
				{
					"key": "Content-Type",
					"value": "application/x-www-form-urlencoded",
					"description": "",
					"enabled": true
				}
			],
			"pathVariableData": [],
			"responses": [],
			"collectionId": "961dbff1-9c38-4ca1-a363-90f8467aa148"
		},
		{
			"folder": "19ebb5ae-0796-4c62-9cd7-22d1521866c4",
			"id": "633c34b1-f1c2-4f93-bfd8-675104f80053",
			"name": "List Allowance Type",
			"dataMode": "urlencoded",
			"data": [
				{
					"key": "page",
					"value": "listAllowanceType",
					"type": "text",
					"enabled": true,
					"description": "listAllowanceType,selectAllowanceType"
				},
				{
					"key": "allowanceTypeName",
					"value": "Allowance 2",
					"type": "text",
					"enabled": true,
					"description": ""
				},
				{
					"key": "allowanceTypeName",
					"value": "adasd",
					"type": "text",
					"enabled": true,
					"description": ""
				},
				{
					"key": "allowanceTypeStatus",
					"value": "",
					"type": "text",
					"enabled": true,
					"description": ""
				},
				{
					"key": "allowanceTypeID",
					"value": "",
					"type": "text",
					"enabled": false,
					"description": ""
				}
			],
			"auth": null,
			"events": null,
			"rawModeData": null,
			"descriptionFormat": null,
			"description": null,
			"variables": null,
			"headers": "Content-Type: application/x-www-form-urlencoded\n",
			"method": "POST",
			"pathVariables": {},
			"url": "{{live}}/module/allowance-type/allowance_type.php",
			"preRequestScript": null,
			"tests": null,
			"currentHelper": null,
			"helperAttributes": null,
			"queryParams": [],
			"headerData": [
				{
					"key": "Content-Type",
					"value": "application/x-www-form-urlencoded"
				}
			],
			"pathVariableData": [],
			"responses": [],
			"collectionId": "961dbff1-9c38-4ca1-a363-90f8467aa148"
		},
		{
			"folder": "a85fbde2-b9a7-4948-bdc8-fe4544329463",
			"id": "662c9d42-ec69-4158-87c9-43b79ef49808",
			"name": "Add Loan Type",
			"dataMode": "urlencoded",
			"data": [
				{
					"key": "page",
					"value": "addLoanType",
					"type": "text",
					"enabled": true,
					"description": ""
				},
				{
					"key": "loanTypeName",
					"value": "Loan 2",
					"type": "text",
					"enabled": true,
					"description": ""
				},
				{
					"key": "loanTypeStatus",
					"value": "N",
					"type": "text",
					"enabled": true,
					"description": ""
				},
				{
					"key": "loanTypeID",
					"value": "",
					"type": "text",
					"enabled": false,
					"description": ""
				}
			],
			"auth": null,
			"events": null,
			"rawModeData": null,
			"descriptionFormat": null,
			"description": null,
			"variables": null,
			"headers": "Content-Type: application/x-www-form-urlencoded\n",
			"method": "POST",
			"pathVariables": {},
			"url": "{{live}}/module/loan-type/add_loan_type.php",
			"preRequestScript": null,
			"tests": null,
			"currentHelper": null,
			"helperAttributes": null,
			"queryParams": [],
			"headerData": [
				{
					"key": "Content-Type",
					"value": "application/x-www-form-urlencoded"
				}
			],
			"pathVariableData": [],
			"responses": [],
			"collectionId": "961dbff1-9c38-4ca1-a363-90f8467aa148"
		},
		{
			"folder": "3f871b0e-148d-40ac-b088-908a002a2dc7",
			"id": "771c4953-b028-4251-b913-48e219cc2268",
			"name": "Update Deduction Type",
			"dataMode": "urlencoded",
			"data": [
				{
					"key": "page",
					"type": "text",
					"value": "updateDeductionType"
				},
				{
					"key": "deductionTypeID",
					"type": "text",
					"value": "1"
				},
				{
					"key": "deductionTypeName",
					"value": "Deduction",
					"description": "",
					"type": "text",
					"enabled": true
				},
				{
					"key": "deductionTypeStatus",
					"value": "N",
					"description": "",
					"type": "text",
					"enabled": true
				}
			],
			"auth": null,
			"events": null,
			"rawModeData": null,
			"descriptionFormat": null,
			"description": null,
			"variables": null,
			"headers": "Content-Type: application/x-www-form-urlencoded\n",
			"method": "POST",
			"pathVariables": {},
			"url": "{{live}}/module/deduction-type/update_deduction_type.php",
			"preRequestScript": null,
			"tests": null,
			"currentHelper": null,
			"helperAttributes": null,
			"queryParams": [],
			"headerData": [
				{
					"key": "Content-Type",
					"value": "application/x-www-form-urlencoded"
				}
			],
			"pathVariableData": [],
			"responses": [],
			"collectionId": "961dbff1-9c38-4ca1-a363-90f8467aa148"
		},
		{
			"folder": "0af73041-16b2-49f6-9508-c6b36636d668",
			"id": "7ebccabe-a8df-484a-a9d5-e3536344a39d",
			"name": "Update Department",
			"dataMode": "urlencoded",
			"data": [
				{
					"key": "page",
					"type": "text",
					"value": "updateDepartment"
				},
				{
					"key": "departmentTypeID",
					"value": "1",
					"description": "",
					"type": "text",
					"enabled": true
				},
				{
					"key": "departmentTypeName",
					"type": "text",
					"value": "Mobile"
				},
				{
					"description": "",
					"enabled": true,
					"key": "departmentTypeStatus",
					"type": "text",
					"value": "Y"
				}
			],
			"auth": null,
			"events": null,
			"rawModeData": null,
			"descriptionFormat": null,
			"description": null,
			"variables": null,
			"headers": "Content-Type: application/x-www-form-urlencoded\n",
			"method": "POST",
			"pathVariables": {},
			"url": "{{live}}/department/update_department.php",
			"preRequestScript": null,
			"tests": null,
			"currentHelper": null,
			"helperAttributes": null,
			"queryParams": [],
			"headerData": [
				{
					"key": "Content-Type",
					"value": "application/x-www-form-urlencoded"
				}
			],
			"pathVariableData": [],
			"responses": [],
			"collectionId": "961dbff1-9c38-4ca1-a363-90f8467aa148"
		},
		{
			"folder": "a85fbde2-b9a7-4948-bdc8-fe4544329463",
			"id": "880a994a-b432-4dd6-904e-c511311affd0",
			"name": "Update Loan Type",
			"dataMode": "urlencoded",
			"data": [
				{
					"key": "page",
					"value": "updateLoanType",
					"type": "text",
					"enabled": true,
					"description": ""
				},
				{
					"key": "loanTypeName",
					"value": "Loan 2",
					"type": "text",
					"enabled": true,
					"description": ""
				},
				{
					"key": "loanTypeStatus",
					"value": "Y",
					"type": "text",
					"enabled": true,
					"description": ""
				},
				{
					"key": "loanTypeID",
					"value": "1",
					"type": "text",
					"enabled": true,
					"description": ""
				}
			],
			"auth": null,
			"events": null,
			"rawModeData": null,
			"descriptionFormat": null,
			"description": null,
			"variables": null,
			"headers": "Content-Type: application/x-www-form-urlencoded\n",
			"method": "POST",
			"pathVariables": {},
			"url": "{{live}}/module/loan-type/update_loan_type.php",
			"preRequestScript": null,
			"tests": null,
			"currentHelper": null,
			"helperAttributes": null,
			"queryParams": [],
			"headerData": [
				{
					"key": "Content-Type",
					"value": "application/x-www-form-urlencoded"
				}
			],
			"pathVariableData": [],
			"responses": [],
			"collectionId": "961dbff1-9c38-4ca1-a363-90f8467aa148"
		},
		{
			"folder": "7ccd2043-f849-4dd0-b9da-3182254990b7",
			"id": "883d37b9-5b9f-4c55-ab4a-9db7a87315db",
			"name": "List Employment Type",
			"dataMode": "urlencoded",
			"data": [
				{
					"key": "page",
					"value": "selectEmploymentType",
					"type": "text",
					"description": "listEmploymentType,selectEmploymentType"
				},
				{
					"key": "employmentTypeName",
					"value": "",
					"description": "",
					"type": "text",
					"enabled": true
				},
				{
					"key": "employmentTypeStatus",
					"value": "",
					"description": "",
					"type": "text",
					"enabled": true
				}
			],
			"auth": null,
			"events": null,
			"rawModeData": null,
			"descriptionFormat": null,
			"description": null,
			"variables": null,
			"headers": "Content-Type: application/x-www-form-urlencoded\n",
			"method": "POST",
			"pathVariables": {},
			"url": "{{live}}/module/employment-type/employment_type.php",
			"preRequestScript": null,
			"tests": null,
			"currentHelper": null,
			"helperAttributes": null,
			"queryParams": [],
			"headerData": [
				{
					"key": "Content-Type",
					"value": "application/x-www-form-urlencoded"
				}
			],
			"pathVariableData": [],
			"responses": [],
			"collectionId": "961dbff1-9c38-4ca1-a363-90f8467aa148"
		},
		{
			"folder": "0af73041-16b2-49f6-9508-c6b36636d668",
			"id": "90a9eeef-d59c-4d04-ba55-f12f0bf5eeb1",
			"name": "Add Department",
			"dataMode": "urlencoded",
			"data": [
				{
					"key": "page",
					"value": "addDepartment",
					"type": "text"
				},
				{
					"key": "departmentTypeName",
					"value": "Mobile",
					"type": "text"
				},
				{
					"key": "departmentTypeStatus",
					"value": "Y",
					"description": "",
					"type": "text",
					"enabled": true
				}
			],
			"auth": null,
			"events": null,
			"rawModeData": null,
			"descriptionFormat": null,
			"description": null,
			"variables": null,
			"headers": "Content-Type: application/x-www-form-urlencoded\n",
			"method": "POST",
			"pathVariables": {},
			"url": "{{live}}/module/department/add_department.php",
			"preRequestScript": null,
			"tests": null,
			"currentHelper": null,
			"helperAttributes": null,
			"queryParams": [],
			"headerData": [
				{
					"key": "Content-Type",
					"value": "application/x-www-form-urlencoded"
				}
			],
			"pathVariableData": [],
			"responses": [],
			"collectionId": "961dbff1-9c38-4ca1-a363-90f8467aa148"
		},
		{
			"folder": "ce41cf37-57cc-4289-b6c6-e184b219614a",
			"id": "9181a697-203e-4839-a4d0-0041f8893d28",
			"name": "List User",
			"dataMode": "urlencoded",
			"data": [
				{
					"key": "page",
					"value": "listUser",
					"description": "",
					"type": "text",
					"enabled": true
				},
				{
					"key": "firstName",
					"value": "",
					"description": "",
					"type": "text",
					"enabled": true
				},
				{
					"key": "lastName",
					"value": "",
					"description": "",
					"type": "text",
					"enabled": true
				},
				{
					"key": "userName",
					"value": "",
					"description": "",
					"type": "text",
					"enabled": true
				},
				{
					"key": "userLevel",
					"value": "",
					"description": "",
					"type": "text",
					"enabled": true
				}
			],
			"auth": null,
			"events": null,
			"rawModeData": null,
			"descriptionFormat": null,
			"description": null,
			"variables": null,
			"headers": "Content-Type: application/x-www-form-urlencoded\n",
			"method": "POST",
			"pathVariables": {},
			"url": "{{live}}/module/user/user.php",
			"preRequestScript": null,
			"tests": null,
			"currentHelper": null,
			"helperAttributes": null,
			"queryParams": [],
			"headerData": [
				{
					"key": "Content-Type",
					"name": "Content-Type",
					"value": "application/x-www-form-urlencoded",
					"description": "",
					"type": "text"
				}
			],
			"pathVariableData": [],
			"responses": [],
			"collectionId": "961dbff1-9c38-4ca1-a363-90f8467aa148"
		},
		{
			"folder": "7ccd2043-f849-4dd0-b9da-3182254990b7",
			"id": "9844f05d-9e9c-4e15-9dfc-096ced4ecaad",
			"name": "Update Employment Type",
			"dataMode": "urlencoded",
			"data": [
				{
					"key": "page",
					"type": "text",
					"value": "updateEmploymentType"
				},
				{
					"key": "employmentTypeID",
					"type": "text",
					"value": "1"
				},
				{
					"key": "employmentTypeName",
					"value": "Partime 2",
					"description": "",
					"type": "text",
					"enabled": true
				},
				{
					"key": "employmentTypeStatus",
					"value": "1",
					"description": "",
					"type": "text",
					"enabled": true
				}
			],
			"auth": null,
			"events": null,
			"rawModeData": null,
			"descriptionFormat": null,
			"description": null,
			"variables": null,
			"headers": "Content-Type: application/x-www-form-urlencoded\n",
			"method": "POST",
			"pathVariables": {},
			"url": "{{live}}/module/employment-type/update_employment_type.php",
			"preRequestScript": null,
			"tests": null,
			"currentHelper": null,
			"helperAttributes": null,
			"queryParams": [],
			"headerData": [
				{
					"key": "Content-Type",
					"value": "application/x-www-form-urlencoded"
				}
			],
			"pathVariableData": [],
			"responses": [],
			"collectionId": "961dbff1-9c38-4ca1-a363-90f8467aa148"
		},
		{
			"folder": "f49f8504-87f0-494e-a815-903c21fcb9d0",
			"id": "9b43dc4f-7d82-4c70-9287-554a4af58298",
			"name": "Add Position",
			"dataMode": "urlencoded",
			"data": [
				{
					"key": "page",
					"value": "addPosition",
					"type": "text"
				},
				{
					"key": "positionTypeName",
					"value": "Software Developer 1",
					"type": "text"
				},
				{
					"key": "positionTypeSalary",
					"value": "1000",
					"type": "text"
				},
				{
					"key": "positionTypeStatus",
					"value": "2",
					"type": "text"
				},
				{
					"key": "departmentTypeID",
					"value": "1",
					"description": "",
					"type": "text",
					"enabled": true
				}
			],
			"auth": null,
			"events": null,
			"rawModeData": null,
			"descriptionFormat": null,
			"description": null,
			"variables": null,
			"headers": "Content-Type: application/x-www-form-urlencoded\n",
			"method": "POST",
			"pathVariables": {},
			"url": "{{live}}/module/position/add_position.php",
			"preRequestScript": null,
			"tests": null,
			"currentHelper": null,
			"helperAttributes": null,
			"queryParams": [],
			"headerData": [
				{
					"key": "Content-Type",
					"value": "application/x-www-form-urlencoded"
				}
			],
			"pathVariableData": [],
			"responses": [],
			"collectionId": "961dbff1-9c38-4ca1-a363-90f8467aa148"
		},
		{
			"folder": "0534abe0-5a07-f292-0996-1d69112d062f",
			"id": "a40b2ff8-ac79-d881-e9b2-7e9497f35f45",
			"name": "List Employee",
			"dataMode": "urlencoded",
			"data": [
				{
					"key": "page",
					"value": "listEmployee",
					"type": "text",
					"description": "listEmployee"
				},
				{
					"key": "employeeID",
					"value": "",
					"type": "text",
					"enabled": true
				},
				{
					"key": "firstName",
					"value": "",
					"type": "text",
					"enabled": true
				},
				{
					"key": "lastName",
					"value": "",
					"type": "text",
					"enabled": true
				},
				{
					"key": "positionTypeName",
					"value": "",
					"type": "text",
					"enabled": true
				},
				{
					"key": "employmentStatus",
					"value": "",
					"description": "[Y = active, N = inactive]",
					"type": "text",
					"enabled": true
				},
				{
					"key": "jwt",
					"value": "eyJ0eXAiOiJKV1QiLCJhbGciOiJIUzI1NiJ9.eyJpc3MiOiJodHRwOlwvXC9jb2RpbmdzeW50YXguY29tIiwiYXVkIjoiaHR0cDpcL1wvY29kaW5nc3ludGF4LmNvbSIsImlhdCI6MTU0NTA1NTYzMiwibmJmIjoxNTQ1MDU1NjMyLCJleHAiOjE1NDUwNTkyMzIsImRhdGEiOnsiaWQiOiIxIiwiZW1wbG95ZWVJRCI6IjAwMSIsInVzZXJOYW1lIjoicGF0cmljaWEub3Rlcm8ifX0.mX9zRSm1FA28MMD_55RPIGZ9RJESnvjmD3OUkeSJ3GU",
					"type": "text",
					"enabled": true
				}
			],
			"auth": null,
			"events": null,
			"rawModeData": null,
			"descriptionFormat": null,
			"description": null,
			"variables": null,
			"headers": "Content-Type: application/x-www-form-urlencoded\n",
			"method": "POST",
			"pathVariables": {},
			"url": "{{live}}/module/employee/employee.php",
			"preRequestScript": null,
			"tests": null,
			"currentHelper": null,
			"helperAttributes": null,
			"queryParams": [],
			"headerData": [
				{
					"key": "Content-Type",
					"value": "application/x-www-form-urlencoded",
					"description": "",
					"enabled": true
				}
			],
			"pathVariableData": [],
			"responses": [],
			"collectionId": "961dbff1-9c38-4ca1-a363-90f8467aa148"
		},
		{
			"folder": "0534abe0-5a07-f292-0996-1d69112d062f",
			"id": "a54c54b9-4e59-99aa-5512-ea6741a65581",
			"name": "Select Employee",
			"dataMode": "urlencoded",
			"data": [
				{
					"key": "page",
					"value": "employeeProfile",
					"type": "text"
				},
				{
					"key": "employeeID",
					"value": "001",
					"type": "text"
				},
				{
					"key": "jwt",
					"value": "eyJ0eXAiOiJKV1QiLCJhbGciOiJIUzI1NiJ9.eyJpc3MiOiJodHRwOlwvXC9jb2RpbmdzeW50YXguY29tIiwiYXVkIjoiaHR0cDpcL1wvY29kaW5nc3ludGF4LmNvbSIsImlhdCI6MTU0NTA1NjMwNSwibmJmIjoxNTQ1MDU2MzA1LCJleHAiOjE1NDUwNTk5MDUsImRhdGEiOnsiaWQiOiIxIiwiZW1wbG95ZWVJRCI6IjAwMSIsInVzZXJOYW1lIjoicGF0cmljaWEub3Rlcm8ifX0.ztZ_dtF6mNFHAEdFY5x5IuTmMOuFQU0NjHtG-z8jvHg",
					"type": "text",
					"enabled": true
				}
			],
			"auth": null,
			"events": null,
			"rawModeData": null,
			"descriptionFormat": null,
			"description": null,
			"variables": null,
			"headers": "Content-Type: application/x-www-form-urlencoded\n",
			"method": "POST",
			"pathVariables": {},
			"url": "{{live}}/module/employee/select_employee.php",
			"preRequestScript": null,
			"tests": null,
			"currentHelper": null,
			"helperAttributes": null,
			"queryParams": [],
			"headerData": [
				{
					"key": "Content-Type",
					"value": "application/x-www-form-urlencoded",
					"description": "",
					"enabled": true
				}
			],
			"pathVariableData": [],
			"responses": [],
			"collectionId": "961dbff1-9c38-4ca1-a363-90f8467aa148"
		},
		{
			"folder": "98e6e671-ef34-4018-9f5d-5ca0ab4e4e48",
			"id": "a587b2f9-8405-4a1d-bec2-87ec7e59d9ec",
			"name": "Add Leave",
			"dataMode": "urlencoded",
			"data": [
				{
					"key": "page",
					"value": "addLeave",
					"description": "",
					"type": "text",
					"enabled": true
				},
				{
					"key": "employeeID",
					"value": "001",
					"description": "",
					"type": "text",
					"enabled": true
				},
				{
					"key": "leaveTypeID",
					"value": "2",
					"description": "",
					"type": "text",
					"enabled": true
				},
				{
					"key": "employeeLeaveApplyDate",
					"value": "2018-12-20",
					"description": "",
					"type": "text",
					"enabled": true
				},
				{
					"key": "employeeLeaveStartDate",
					"value": "2018-12-25",
					"description": "",
					"type": "text",
					"enabled": true
				},
				{
					"key": "employeeLeaveEndDate",
					"value": "2018-12-30",
					"description": "",
					"type": "text",
					"enabled": true
				},
				{
					"key": "employeeLeaveRemarks",
					"value": "Family Vacation",
					"description": "",
					"type": "text",
					"enabled": true
				}
			],
			"auth": null,
			"events": null,
			"rawModeData": null,
			"descriptionFormat": null,
			"description": null,
			"variables": null,
			"headers": "Content-Type: application/x-www-form-urlencoded\n",
			"method": "POST",
			"pathVariables": {},
			"url": "{{live}}/module/leave/add_leave.php",
			"preRequestScript": null,
			"tests": null,
			"currentHelper": null,
			"helperAttributes": null,
			"queryParams": [],
			"headerData": [
				{
					"key": "Content-Type",
					"name": "Content-Type",
					"value": "application/x-www-form-urlencoded",
					"description": "",
					"type": "text"
				}
			],
			"pathVariableData": [],
			"responses": [],
			"collectionId": "961dbff1-9c38-4ca1-a363-90f8467aa148"
		},
		{
			"folder": "19ebb5ae-0796-4c62-9cd7-22d1521866c4",
			"id": "b1f11e27-9360-40d8-9612-97fbf2c09192",
			"name": "Add Allowance Type",
			"dataMode": "urlencoded",
			"data": [
				{
					"key": "page",
					"value": "addAllowanceType",
					"type": "text",
					"enabled": true,
					"description": ""
				},
				{
					"key": "allowanceTypeName",
					"value": "Allowance 2",
					"type": "text",
					"enabled": true,
					"description": ""
				},
				{
					"key": "allowanceTypeTaxable",
					"value": "Y",
					"type": "text",
					"enabled": true,
					"description": ""
				},
				{
					"key": "allowanceTypeStatus",
					"value": "N",
					"type": "text",
					"enabled": true,
					"description": ""
				},
				{
					"key": "allowanceTypeID",
					"value": "",
					"type": "text",
					"enabled": true,
					"description": ""
				}
			],
			"auth": null,
			"events": null,
			"rawModeData": null,
			"descriptionFormat": null,
			"description": null,
			"variables": null,
			"headers": "Content-Type: application/x-www-form-urlencoded\n",
			"method": "POST",
			"pathVariables": {},
			"url": "{{live}}/module/allowance-type/add_allowance_type.php",
			"preRequestScript": null,
			"tests": null,
			"currentHelper": null,
			"helperAttributes": null,
			"queryParams": [],
			"headerData": [
				{
					"key": "Content-Type",
					"value": "application/x-www-form-urlencoded"
				}
			],
			"pathVariableData": [],
			"responses": [],
			"collectionId": "961dbff1-9c38-4ca1-a363-90f8467aa148"
		},
		{
			"folder": "3f871b0e-148d-40ac-b088-908a002a2dc7",
			"id": "b4805bc6-b104-42d9-b634-0b08b690c5a2",
			"name": "Add Deduction Type",
			"dataMode": "urlencoded",
			"data": [
				{
					"description": "",
					"enabled": true,
					"key": "page",
					"type": "text",
					"value": "addEmploymentType"
				},
				{
					"description": "",
					"enabled": true,
					"key": "deductionTypeName",
					"type": "text",
					"value": "Deduction 3"
				},
				{
					"description": "",
					"enabled": true,
					"key": "deductionTypeStatus",
					"type": "text",
					"value": "Y"
				}
			],
			"auth": null,
			"events": null,
			"rawModeData": null,
			"descriptionFormat": null,
			"description": null,
			"variables": null,
			"headers": "Content-Type: application/x-www-form-urlencoded\n",
			"method": "POST",
			"pathVariables": {},
			"url": "{{live}}/module/deduction-type/add_deduction_type.php",
			"preRequestScript": null,
			"tests": null,
			"currentHelper": null,
			"helperAttributes": null,
			"queryParams": [],
			"headerData": [
				{
					"key": "Content-Type",
					"value": "application/x-www-form-urlencoded"
				}
			],
			"pathVariableData": [],
			"responses": [],
			"collectionId": "961dbff1-9c38-4ca1-a363-90f8467aa148"
		},
		{
			"folder": "7ccd2043-f849-4dd0-b9da-3182254990b7",
			"id": "b4ade01c-7641-4c3c-9ba2-5e4d8a446503",
			"name": "Add Employment Type",
			"dataMode": "urlencoded",
			"data": [
				{
					"key": "page",
					"value": "addEmploymentType",
					"type": "text",
					"enabled": true,
					"description": ""
				},
				{
					"key": "employmentTypeName",
					"value": "Part Time",
					"type": "text",
					"enabled": true,
					"description": ""
				},
				{
					"key": "employmentTypeStatus",
					"value": "Y",
					"type": "text",
					"enabled": true,
					"description": ""
				}
			],
			"auth": null,
			"events": null,
			"rawModeData": null,
			"descriptionFormat": null,
			"description": null,
			"variables": null,
			"headers": "Content-Type: application/x-www-form-urlencoded\n",
			"method": "POST",
			"pathVariables": {},
			"url": "{{live}}/module/employment-type/add_employment_type.php",
			"preRequestScript": null,
			"tests": null,
			"currentHelper": null,
			"helperAttributes": null,
			"queryParams": [],
			"headerData": [
				{
					"key": "Content-Type",
					"value": "application/x-www-form-urlencoded"
				}
			],
			"pathVariableData": [],
			"responses": [],
			"collectionId": "961dbff1-9c38-4ca1-a363-90f8467aa148"
		},
		{
			"folder": null,
			"id": "b809ae18-412b-4179-a6ca-75d23917b305",
			"name": "Logout",
			"dataMode": "urlencoded",
			"data": [
				{
					"key": "submit",
					"value": "logout",
					"type": "text",
					"enabled": true
				}
			],
			"auth": null,
			"events": null,
			"rawModeData": null,
			"descriptionFormat": null,
			"description": null,
			"variables": null,
			"headers": "Content-Type: application/x-www-form-urlencoded\n",
			"method": "POST",
			"pathVariables": {},
			"url": "{{live}}/logout.php",
			"preRequestScript": null,
			"tests": null,
			"currentHelper": null,
			"helperAttributes": null,
			"queryParams": [],
			"headerData": [
				{
					"key": "Content-Type",
					"value": "application/x-www-form-urlencoded",
					"enabled": true
				}
			],
			"pathVariableData": [],
			"responses": [],
			"collectionId": "961dbff1-9c38-4ca1-a363-90f8467aa148"
		},
		{
			"folder": null,
			"id": "c56489b0-8dd8-41b4-88bb-117b4dc5facb",
			"name": "Login",
			"dataMode": "urlencoded",
			"data": [
				{
					"key": "userName",
					"value": "patricia.otero",
					"type": "text"
				},
				{
					"key": "userPassword",
					"value": "123456",
					"type": "text"
				}
			],
			"auth": null,
			"events": null,
			"rawModeData": null,
			"descriptionFormat": null,
			"description": null,
			"variables": null,
			"headers": "Content-Type: application/x-www-form-urlencoded\n",
			"method": "POST",
			"pathVariables": {},
			"url": "{{live}}/login.php",
			"preRequestScript": null,
			"tests": null,
			"currentHelper": null,
			"helperAttributes": null,
			"queryParams": [],
			"headerData": [
				{
					"key": "Content-Type",
					"value": "application/x-www-form-urlencoded"
				}
			],
			"pathVariableData": [],
			"responses": [],
			"collectionId": "961dbff1-9c38-4ca1-a363-90f8467aa148"
		},
		{
			"folder": "f49f8504-87f0-494e-a815-903c21fcb9d0",
			"id": "c5b61c1c-7149-447c-89e9-c09634ee533a",
			"name": "List Position",
			"dataMode": "urlencoded",
			"data": [
				{
					"key": "page",
					"value": "listPosition",
					"type": "text",
					"description": "listPosition, searchPosition"
				},
				{
					"key": "departmentTypeID",
					"value": "",
					"description": "",
					"type": "text",
					"enabled": true
				},
				{
					"key": "positionTypeName",
					"value": "Software Developer 2",
					"description": "",
					"type": "text",
					"enabled": true
				},
				{
					"key": "positionTypeStatus",
					"value": "",
					"description": "",
					"type": "text",
					"enabled": true
				}
			],
			"auth": null,
			"events": null,
			"rawModeData": null,
			"descriptionFormat": null,
			"description": null,
			"variables": null,
			"headers": "Content-Type: application/x-www-form-urlencoded\n",
			"method": "POST",
			"pathVariables": {},
			"url": "{{live}}/module/position/position.php",
			"preRequestScript": null,
			"tests": null,
			"currentHelper": null,
			"helperAttributes": null,
			"queryParams": [],
			"headerData": [
				{
					"key": "Content-Type",
					"value": "application/x-www-form-urlencoded"
				}
			],
			"pathVariableData": [],
			"responses": [],
			"collectionId": "961dbff1-9c38-4ca1-a363-90f8467aa148"
		},
		{
			"folder": "0534abe0-5a07-f292-0996-1d69112d062f",
			"id": "c9b6dd5f-3a5f-55ce-b520-138f9133c970",
			"name": "Update Employee",
			"dataMode": "urlencoded",
			"data": [
				{
					"key": "page",
					"value": "updateEmployee",
					"type": "text",
					"enabled": true
				},
				{
					"key": "employeeID",
					"value": "010",
					"type": "text",
					"enabled": true
				},
				{
					"key": "firstName",
					"value": "eireenaa1",
					"type": "text",
					"enabled": true
				},
				{
					"key": "lastName",
					"value": "Estudilloo1",
					"type": "text",
					"enabled": true
				},
				{
					"key": "middleName",
					"value": "Aguirre",
					"type": "text",
					"enabled": true
				},
				{
					"key": "extName",
					"value": "",
					"type": "text",
					"enabled": true
				},
				{
					"key": "birthday",
					"value": "1995-04-21",
					"type": "text",
					"enabled": true
				},
				{
					"key": "gender",
					"value": "2",
					"type": "text",
					"enabled": true
				},
				{
					"key": "civilStatus",
					"value": "2",
					"type": "text",
					"enabled": true
				},
				{
					"key": "nationality",
					"value": "Filipino",
					"type": "text",
					"enabled": true
				},
				{
					"key": "email",
					"value": "ayrah0421.pao@gmail.com",
					"type": "text",
					"enabled": true
				},
				{
					"key": "contactNumber",
					"value": "09771003619",
					"type": "text",
					"enabled": true
				},
				{
					"key": "address1",
					"value": "096 Stuazon St.",
					"type": "text",
					"enabled": true
				},
				{
					"key": "city1",
					"value": "Pateros",
					"type": "text",
					"enabled": true
				},
				{
					"key": "provinceState1",
					"value": "Metro, Manila",
					"type": "text",
					"enabled": true
				},
				{
					"key": "country1",
					"value": "Philippines",
					"type": "text",
					"enabled": true
				},
				{
					"key": "zipCode1",
					"value": "1620",
					"type": "text",
					"enabled": true
				},
				{
					"key": "addressType1",
					"value": "1",
					"type": "text",
					"enabled": true
				},
				{
					"key": "residentailAddress",
					"value": "true",
					"type": "text",
					"enabled": true
				},
				{
					"key": "address2",
					"value": "0977 M.Almeda St. Brgy. Poblacion",
					"type": "text",
					"enabled": true
				},
				{
					"key": "city2",
					"value": "Pateros",
					"type": "text",
					"enabled": true
				},
				{
					"key": "provinceState2",
					"value": "Metro, Manila",
					"type": "text",
					"enabled": true
				},
				{
					"key": "country2",
					"value": "Philippines",
					"type": "text",
					"enabled": true
				},
				{
					"key": "zipCode2",
					"value": "1620",
					"type": "text",
					"enabled": true
				},
				{
					"key": "addressType2",
					"value": "2",
					"type": "text",
					"enabled": true
				},
				{
					"key": "contactName",
					"value": "Davecar Grave",
					"type": "text",
					"enabled": true
				},
				{
					"key": "emergencyContactNum",
					"value": "0977788822",
					"type": "text",
					"enabled": true
				},
				{
					"key": "relationship",
					"value": "Father",
					"type": "text",
					"enabled": true
				},
				{
					"key": "remarks",
					"value": "Father of my future daughter and son",
					"type": "text",
					"enabled": true
				},
				{
					"key": "employmentBasicSalary",
					"value": "10000",
					"type": "text",
					"enabled": true
				},
				{
					"key": "positionTypeID",
					"value": "1",
					"type": "text",
					"enabled": true
				},
				{
					"key": "governmentNumber[]",
					"value": "111111",
					"type": "text",
					"enabled": true
				},
				{
					"key": "governmentNumber[]",
					"value": "222222",
					"type": "text",
					"enabled": true
				},
				{
					"key": "governmentNumber[]",
					"value": "333333",
					"type": "text",
					"enabled": true
				},
				{
					"key": "governmentType[]",
					"value": "1",
					"type": "text",
					"enabled": true
				},
				{
					"key": "governmentType[]",
					"value": "1",
					"type": "text",
					"enabled": true
				},
				{
					"key": "governmentType[]",
					"value": "1",
					"type": "text",
					"enabled": true
				},
				{
					"key": "governmentStatus[]",
					"value": "1",
					"type": "text",
					"enabled": true
				},
				{
					"key": "governmentStatus[]",
					"value": "1",
					"type": "text",
					"enabled": true
				},
				{
					"key": "governmentStatus[]",
					"value": "1",
					"type": "text",
					"enabled": true
				},
				{
					"key": "employeeGovID[]",
					"value": "1",
					"type": "text",
					"enabled": true
				},
				{
					"key": "employeeGovID[]",
					"value": "2",
					"type": "text",
					"enabled": true
				},
				{
					"key": "employeeGovID[]",
					"value": "3",
					"type": "text",
					"enabled": true
				},
				{
					"key": "educationalID[]",
					"value": "1",
					"type": "text",
					"enabled": true
				},
				{
					"key": "educationalLevelName[]",
					"value": "Primary",
					"type": "text",
					"enabled": true
				},
				{
					"key": "educationalStartDate[]",
					"value": "2018-01-01",
					"type": "text",
					"enabled": true
				},
				{
					"key": "educationalEndDate[]",
					"value": "2018-01-02",
					"type": "text",
					"enabled": true
				},
				{
					"key": "educationalMajorSpecialization[]",
					"value": "Nothing",
					"type": "text",
					"enabled": true
				},
				{
					"key": "educationalID[]",
					"value": "2",
					"type": "text",
					"enabled": true
				},
				{
					"key": "educationalLevelName[]",
					"value": "Seconday",
					"type": "text",
					"enabled": true
				},
				{
					"key": "educationalStartDate[]",
					"value": "2018-02-01",
					"type": "text",
					"enabled": true
				},
				{
					"key": "educationalEndDate[]",
					"value": "2018-02-02",
					"type": "text",
					"enabled": true
				},
				{
					"key": "educationalMajorSpecialization[]",
					"value": "Nothing",
					"type": "text",
					"enabled": true
				},
				{
					"key": "departmentTypeID",
					"value": "1",
					"type": "text",
					"enabled": true
				},
				{
					"key": "positionTypeID",
					"value": "1",
					"type": "text",
					"enabled": true
				},
				{
					"key": "employmentOriginalDateHIred",
					"value": "2018-02-02",
					"type": "text",
					"enabled": true
				},
				{
					"key": "employmentStartDate",
					"value": "2018-02-03",
					"type": "text",
					"enabled": true
				},
				{
					"key": "employmentStatus",
					"value": "1",
					"type": "text",
					"enabled": true
				},
				{
					"key": "employmentTypeID",
					"value": "1",
					"type": "text",
					"enabled": true
				},
				{
					"key": "employmentPaymentType",
					"value": "1",
					"type": "text",
					"enabled": true
				},
				{
					"key": "employmentPaymentGroup",
					"value": "1",
					"type": "text",
					"enabled": true
				},
				{
					"key": "userLevel",
					"value": "1",
					"type": "text",
					"enabled": true
				},
				{
					"key": "jwt",
					"value": "eyJ0eXAiOiJKV1QiLCJhbGciOiJIUzI1NiJ9.eyJpc3MiOiJodHRwOlwvXC9jb2RpbmdzeW50YXguY29tIiwiYXVkIjoiaHR0cDpcL1wvY29kaW5nc3ludGF4LmNvbSIsImlhdCI6MTU0NTA4MzIyMSwibmJmIjoxNTQ1MDgzMjIxLCJleHAiOjE1NDUwODY4MjEsImRhdGEiOnsiaWQiOiIxIiwiZW1wbG95ZWVJRCI6IjAwMSIsInVzZXJOYW1lIjoicGF0cmljaWEub3Rlcm8ifX0.HxUQhIbNs3G2nxcg3BkZhKQOKzoSwN__QbH9sQY3go8",
					"type": "text",
					"enabled": true
				}
			],
			"auth": null,
			"events": null,
			"rawModeData": null,
			"descriptionFormat": null,
			"description": "Add Employee",
			"variables": null,
			"headers": "Content-Type: application/x-www-form-urlencoded\n",
			"method": "POST",
			"pathVariables": {},
			"url": "{{live}}/module/employee/update_employee.php",
			"preRequestScript": null,
			"tests": null,
			"currentHelper": null,
			"helperAttributes": null,
			"queryParams": [
				{
					"enabled": false,
					"key": "page",
					"type": "text",
					"value": "addEmployee"
				},
				{
					"enabled": false,
					"key": "jwt",
					"type": "text",
					"value": "eyJ0eXAiOiJKV1QiLCJhbGciOiJIUzI1NiJ9.eyJpc3MiOiJodHRwOlwvXC9jb2RpbmdzeW50YXguY29tIiwiYXVkIjoiaHR0cDpcL1wvY29kaW5nc3ludGF4LmNvbSIsImlhdCI6MTU0NTA1Mjk1MSwibmJmIjoxNTQ1MDUyOTUxLCJleHAiOjE1NDUwNTY1NTEsImRhdGEiOnsiaWQiOiIxIiwiZW1wbG95ZWVJRCI6IjAwMSIsInVzZXJOYW1lIjoicGF0cmljaWEub3Rlcm8ifX0._U9iI_Dunbbsu4efYlqhE_sGhC0BNB1nwdKi6mFhFm4"
				}
			],
			"headerData": [
				{
					"key": "Content-Type",
					"value": "application/x-www-form-urlencoded",
					"description": "",
					"enabled": true
				}
			],
			"pathVariableData": [],
			"responses": [],
			"collectionId": "961dbff1-9c38-4ca1-a363-90f8467aa148"
		},
		{
			"folder": null,
			"id": "cc0fc573-ead1-430a-9813-7fde992975c3",
			"name": "Reset the default password",
			"dataMode": "params",
			"data": [
				{
					"key": "page",
					"value": "requestList",
					"description": "resetDefault: reset password from 12345\nresetPassword: reset to 12345\nrequestList: show list of requested reset requestReset: input username\n",
					"type": "text",
					"enabled": true
				},
				{
					"key": "userPassword",
					"value": "123456",
					"type": "text",
					"enabled": true
				},
				{
					"key": "userID",
					"value": "1",
					"type": "text",
					"enabled": true
				},
				{
					"key": "userName",
					"value": "patricia.otero",
					"description": "",
					"type": "text",
					"enabled": false
				},
				{
					"key": "resetPasswordID",
					"value": "1",
					"description": "",
					"type": "text",
					"enabled": false
				},
				{
					"key": "resetPasswordStatus",
					"value": "3",
					"description": "",
					"type": "text",
					"enabled": false
				}
			],
			"auth": null,
			"events": null,
			"rawModeData": null,
			"descriptionFormat": null,
			"description": null,
			"variables": null,
			"headers": "//Content-Type: application/x-www-form-urlencoded\n",
			"method": "POST",
			"pathVariables": {},
			"url": "{{live}}/reset_password.php",
			"preRequestScript": null,
			"tests": null,
			"currentHelper": null,
			"helperAttributes": null,
			"queryParams": [],
			"headerData": [
				{
					"key": "Content-Type",
					"value": "application/x-www-form-urlencoded",
					"enabled": false
				}
			],
			"pathVariableData": [],
			"responses": [],
			"collectionId": "961dbff1-9c38-4ca1-a363-90f8467aa148"
		},
		{
			"folder": "a4d7a446-f539-4908-960a-aad9e85ffe2d",
			"id": "ccfa47fa-e2ea-4247-9dde-e877d02a4d35",
			"name": "Update Leave Type",
			"dataMode": "urlencoded",
			"data": [
				{
					"key": "page",
					"value": "updateLeaveType",
					"type": "text",
					"enabled": true,
					"description": ""
				},
				{
					"key": "leaveTypeID",
					"value": "1",
					"type": "text",
					"enabled": true,
					"description": ""
				},
				{
					"key": "leaveTypeName",
					"value": "Leave",
					"type": "text",
					"enabled": true,
					"description": ""
				},
				{
					"key": "leaveTypeStatus",
					"value": "N",
					"type": "text",
					"enabled": true,
					"description": ""
				}
			],
			"auth": null,
			"events": null,
			"rawModeData": null,
			"descriptionFormat": null,
			"description": null,
			"variables": null,
			"headers": "Content-Type: application/x-www-form-urlencoded\n",
			"method": "POST",
			"pathVariables": {},
			"url": "{{live}}/module/leave-type/update_leave_type.php",
			"preRequestScript": null,
			"tests": null,
			"currentHelper": null,
			"helperAttributes": null,
			"queryParams": [],
			"headerData": [
				{
					"key": "Content-Type",
					"value": "application/x-www-form-urlencoded"
				}
			],
			"pathVariableData": [],
			"responses": [],
			"collectionId": "961dbff1-9c38-4ca1-a363-90f8467aa148"
		},
		{
			"folder": "98e6e671-ef34-4018-9f5d-5ca0ab4e4e48",
			"id": "d2d21fd9-b76c-46f9-bdec-08d0d9e10e53",
			"name": "List Leave",
			"dataMode": "urlencoded",
			"data": [
				{
					"key": "page",
					"value": "listLeave",
					"description": "",
					"type": "text",
					"enabled": true
				},
				{
					"key": "firstName",
					"value": "",
					"description": "",
					"type": "text",
					"enabled": true
				},
				{
					"key": "lastName",
					"value": "",
					"description": "",
					"type": "text",
					"enabled": true
				},
				{
					"key": "leaveTypeID",
					"value": "",
					"description": "",
					"type": "text",
					"enabled": true
				},
				{
					"key": "employeeLeaveStatus",
					"value": "",
					"description": "",
					"type": "text",
					"enabled": true
				},
				{
					"key": "employeeLeaveStartDate",
					"value": "",
					"description": "",
					"type": "text",
					"enabled": true
				},
				{
					"key": "employeeLeaveEndDate",
					"value": "",
					"description": "",
					"type": "text",
					"enabled": true
				}
			],
			"auth": null,
			"events": null,
			"rawModeData": null,
			"descriptionFormat": null,
			"description": null,
			"variables": null,
			"headers": "Content-Type: application/x-www-form-urlencoded\n",
			"method": "POST",
			"pathVariables": {},
			"url": "{{live}}/module/leave/leave.php",
			"preRequestScript": null,
			"tests": null,
			"currentHelper": null,
			"helperAttributes": null,
			"queryParams": [],
			"headerData": [
				{
					"key": "Content-Type",
					"name": "Content-Type",
					"value": "application/x-www-form-urlencoded",
					"description": "",
					"type": "text"
				}
			],
			"pathVariableData": [],
			"responses": [],
			"collectionId": "961dbff1-9c38-4ca1-a363-90f8467aa148"
		},
		{
			"folder": "6178b70e-5ca9-467e-9e32-637dde2832e3",
			"id": "e29f154c-5324-47f4-b128-f1ea95cdf276",
			"name": "List holiday",
			"dataMode": "urlencoded",
			"data": [
				{
					"key": "page",
					"value": "searchHoliday",
					"type": "text",
					"description": "listHoliday, searchHoliday"
				},
				{
					"key": "holidayName",
					"value": "",
					"description": "",
					"type": "text",
					"enabled": true
				},
				{
					"key": "holidayType",
					"value": "",
					"description": "",
					"type": "text",
					"enabled": true
				},
				{
					"key": "holidayDay",
					"value": "2",
					"description": "",
					"type": "text",
					"enabled": true
				}
			],
			"auth": null,
			"events": null,
			"rawModeData": null,
			"descriptionFormat": null,
			"description": null,
			"variables": null,
			"headers": "Content-Type: application/x-www-form-urlencoded\n",
			"method": "POST",
			"pathVariables": {},
			"url": "{{live}}/module/holiday/holiday.php",
			"preRequestScript": null,
			"tests": null,
			"currentHelper": null,
			"helperAttributes": null,
			"queryParams": [],
			"headerData": [
				{
					"key": "Content-Type",
					"value": "application/x-www-form-urlencoded"
				}
			],
			"pathVariableData": [],
			"responses": [],
			"collectionId": "961dbff1-9c38-4ca1-a363-90f8467aa148"
		},
		{
			"folder": "19ebb5ae-0796-4c62-9cd7-22d1521866c4",
			"id": "e556af86-72d7-432e-bacc-2d82e866a11f",
			"name": "Update Allowance Type",
			"dataMode": "urlencoded",
			"data": [
				{
					"key": "page",
					"value": "updateAllowanceType",
					"type": "text",
					"enabled": true,
					"description": ""
				},
				{
					"key": "allowanceTypeName",
					"value": "Allowance 2",
					"type": "text",
					"enabled": true,
					"description": ""
				},
				{
					"key": "allowanceTypeName",
					"value": "Y",
					"type": "text",
					"enabled": true,
					"description": ""
				},
				{
					"key": "allowanceTypeStatus",
					"value": "N",
					"type": "text",
					"enabled": true,
					"description": ""
				},
				{
					"key": "allowanceTypeID",
					"value": "",
					"type": "text",
					"enabled": true,
					"description": ""
				}
			],
			"auth": null,
			"events": null,
			"rawModeData": null,
			"descriptionFormat": null,
			"description": null,
			"variables": null,
			"headers": "Content-Type: application/x-www-form-urlencoded\n",
			"method": "POST",
			"pathVariables": {},
			"url": "{{live}}/module/leave-type/update_leave_type.php",
			"preRequestScript": null,
			"tests": null,
			"currentHelper": null,
			"helperAttributes": null,
			"queryParams": [],
			"headerData": [
				{
					"key": "Content-Type",
					"value": "application/x-www-form-urlencoded"
				}
			],
			"pathVariableData": [],
			"responses": [],
			"collectionId": "961dbff1-9c38-4ca1-a363-90f8467aa148"
		},
		{
			"folder": "6178b70e-5ca9-467e-9e32-637dde2832e3",
			"id": "e7885674-c5bc-4945-bac8-17a0835bcf8d",
			"name": "Add Holiday",
			"dataMode": "urlencoded",
			"data": [
				{
					"key": "page",
					"value": "addHoliday",
					"type": "text"
				},
				{
					"key": "holidayName",
					"value": "christmas",
					"type": "text"
				},
				{
					"key": "holidayDate",
					"value": "2018-12-25",
					"type": "text"
				},
				{
					"key": "holidayType",
					"value": "1",
					"type": "text"
				}
			],
			"auth": null,
			"events": null,
			"rawModeData": null,
			"descriptionFormat": null,
			"description": null,
			"variables": null,
			"headers": "Content-Type: application/x-www-form-urlencoded\n",
			"method": "POST",
			"pathVariables": {},
			"url": "{{live}}/module/holiday/add_holiday.php",
			"preRequestScript": null,
			"tests": null,
			"currentHelper": null,
			"helperAttributes": null,
			"queryParams": [],
			"headerData": [
				{
					"key": "Content-Type",
					"value": "application/x-www-form-urlencoded"
				}
			],
			"pathVariableData": [],
			"responses": [],
			"collectionId": "961dbff1-9c38-4ca1-a363-90f8467aa148"
		},
		{
			"folder": "a85fbde2-b9a7-4948-bdc8-fe4544329463",
			"id": "ed15176b-da0c-4a08-b03c-7a724281d904",
			"name": "List Loan Type",
			"dataMode": "urlencoded",
			"data": [
				{
					"key": "page",
					"value": "listLoanType",
					"type": "text",
					"enabled": true,
					"description": "listLoanType,selectLoanType"
				},
				{
					"key": "loanTypeName",
					"value": "",
					"type": "text",
					"enabled": true,
					"description": ""
				},
				{
					"key": "loanTypeStatus",
					"value": "",
					"type": "text",
					"enabled": true,
					"description": ""
				},
				{
					"key": "loanTypeID",
					"value": "",
					"type": "text",
					"enabled": true,
					"description": ""
				}
			],
			"auth": null,
			"events": null,
			"rawModeData": null,
			"descriptionFormat": null,
			"description": null,
			"variables": null,
			"headers": "Content-Type: application/x-www-form-urlencoded\n",
			"method": "POST",
			"pathVariables": {},
			"url": "{{live}}/module/loan-type/loan_type.php",
			"preRequestScript": null,
			"tests": null,
			"currentHelper": null,
			"helperAttributes": null,
			"queryParams": [],
			"headerData": [
				{
					"key": "Content-Type",
					"value": "application/x-www-form-urlencoded"
				}
			],
			"pathVariableData": [],
			"responses": [],
			"collectionId": "961dbff1-9c38-4ca1-a363-90f8467aa148"
		},
		{
			"folder": "3f871b0e-148d-40ac-b088-908a002a2dc7",
			"id": "fbdd2e21-2f24-4009-8cf2-92461b8fa9ef",
			"name": "List Deduction Type",
			"dataMode": "urlencoded",
			"data": [
				{
					"description": "listDeductionType,selectDeductionType",
					"key": "page",
					"type": "text",
					"value": "selectDeductionType"
				},
				{
					"description": "",
					"enabled": true,
					"key": "deductionTypeName",
					"type": "text",
					"value": ""
				},
				{
					"description": "",
					"enabled": true,
					"key": "deductionTypeStatus",
					"type": "text",
					"value": ""
				},
				{
					"key": "deductionTypeID",
					"value": "",
					"description": "",
					"type": "text",
					"enabled": true
				}
			],
			"auth": null,
			"events": null,
			"rawModeData": null,
			"descriptionFormat": null,
			"description": null,
			"variables": null,
			"headers": "Content-Type: application/x-www-form-urlencoded\n",
			"method": "POST",
			"pathVariables": {},
			"url": "{{live}}/module/deduction-type/deduction_type.php",
			"preRequestScript": null,
			"tests": null,
			"currentHelper": null,
			"helperAttributes": null,
			"queryParams": [],
			"headerData": [
				{
					"key": "Content-Type",
					"value": "application/x-www-form-urlencoded"
				}
			],
			"pathVariableData": [],
			"responses": [],
			"collectionId": "961dbff1-9c38-4ca1-a363-90f8467aa148"
		}
	]
}